functions
…
関数の引数を左辺に持ってくる場合は=ではなく:=を用いる． 次は第3引数に新しい変数名（デフォルトはlogged_var）を指定することができる関数である．また新しい変数を使って全体平均も求めている．

log_var <-
  function(data, x, newvar = logged_var){
  data |> 
    mutate({{newvar}} := log({{x}}),
           grand_mean := mean({{newvar}}, 
                              na.rm = TRUE))
}

log_var(penguins, bill_length_mm)

# A tibble: 344 × 10
   species island    bill_length_mm bill_depth_mm flipper_length_mm body_mass_g
   <fct>   <fct>              <dbl>         <dbl>             <int>       <int>
 1 Adelie  Torgersen           39.1          18.7               181        3750
 2 Adelie  Torgersen           39.5          17.4               186        3800
 3 Adelie  Torgersen           40.3          18                 195        3250
 4 Adelie  Torgersen           NA            NA                  NA          NA
 5 Adelie  Torgersen           36.7          19.3               193        3450
 6 Adelie  Torgersen           39.3          20.6               190        3650
 7 Adelie  Torgersen           38.9          17.8               181        3625
 8 Adelie  Torgersen           39.2          19.6               195        4675
 9 Adelie  Torgersen           34.1          18.1               193        3475
10 Adelie  Torgersen           42            20.2               190        4250
# ℹ 334 more rows
# ℹ 4 more variables: sex <fct>, year <int>, logged_var <dbl>, grand_mean <dbl>

log_var(penguins, bill_length_mm, log_bill_length_mm)

# A tibble: 344 × 10
   species island    bill_length_mm bill_depth_mm flipper_length_mm body_mass_g
   <fct>   <fct>              <dbl>         <dbl>             <int>       <int>
 1 Adelie  Torgersen           39.1          18.7               181        3750
 2 Adelie  Torgersen           39.5          17.4               186        3800
 3 Adelie  Torgersen           40.3          18                 195        3250
 4 Adelie  Torgersen           NA            NA                  NA          NA
 5 Adelie  Torgersen           36.7          19.3               193        3450
 6 Adelie  Torgersen           39.3          20.6               190        3650
 7 Adelie  Torgersen           38.9          17.8               181        3625
 8 Adelie  Torgersen           39.2          19.6               195        4675
 9 Adelie  Torgersen           34.1          18.1               193        3475
10 Adelie  Torgersen           42            20.2               190        4250
# ℹ 334 more rows
# ℹ 4 more variables: sex <fct>, year <int>, log_bill_length_mm <dbl>,
#   grand_mean <dbl>
…
# A tibble: 5 × 5
  term        estimate std.error statistic   p.value
  <chr>          <dbl>     <dbl>     <dbl>     <dbl>
1 (Intercept)    4.00     0.0317     126.  0        
2 X1             2.09     0.0320      65.3 0        
3 X2            -3.02     0.0312     -96.9 0        
4 X3             1.54     0.0315      48.8 2.23e-266
5 X4            -0.470    0.0328     -14.3 1.83e- 42

fit_sim <- map_dfr(1:1000, ~run_lm(), .id = "simulation") 
fit_sim

# A tibble: 5,000 × 6
   simulation term        estimate std.error statistic   p.value
   <chr>      <chr>          <dbl>     <dbl>     <dbl>     <dbl>
 1 1          (Intercept)    4.04     0.0309     131.  0        
 2 1          X1             1.96     0.0303      64.8 0        
 3 1          X2            -3.02     0.0312     -96.9 0        
 4 1          X3             1.45     0.0304      47.8 3.06e-260
 5 1          X4            -0.462    0.0315     -14.7 2.89e- 44
 6 2          (Intercept)    3.99     0.0322     124.  0        
 7 2          X1             2.00     0.0324      61.9 0        
 8 2          X2            -2.98     0.0318     -93.8 0        
 9 2          X3             1.49     0.0318      47.0 3.67e-255
10 2          X4            -0.493    0.0332     -14.8 3.31e- 45
# ℹ 4,990 more rows
…
# 母集団データ
pop_data <- tibble(
    X1 = rnorm(N),
    X2 = rnorm(N),
    X3 = rnorm(N),
    X4 = rnorm(N),
    Y = b0 + b1 * X1 + b2 * X2 + b3 * X3 + b4 * X4 + rnorm(N, sd = 10)) |> 
  relocate(Y)
pop_data

# A tibble: 10,000,000 × 5
       Y      X1      X2      X3     X4
   <dbl>   <dbl>   <dbl>   <dbl>  <dbl>
 1 -5.96  0.834  -0.228  -0.836  -0.759
 2 -8.23 -0.276  -0.112   0.0974 -0.201
 3  3.25 -0.355   1.79   -0.963  -2.07 
 4 12.8   0.0875  1.29   -0.615  -0.392
 5 -3.24  2.25    1.43    0.0347 -0.650
 6 -7.93  0.834   0.878  -0.712   0.228
 7 24.4   1.31   -0.0411 -0.320   0.637
 8 17.0   2.50   -1.21    2.10    1.09 
 9 18.5   1.17    1.15    0.404   1.14 
10  4.45 -0.426   0.435  -0.613  -0.178
# ℹ 9,999,990 more rows
…
# sample_and_lm() を1000回実行する
fit_sim <- map_dfr(1:1000, 
                   ~sample_and_lm(), 
                   .id = "simulation")
fit_sim

# A tibble: 5,000 × 6
   simulation term        estimate std.error statistic     p.value
   <chr>      <chr>          <dbl>     <dbl>     <dbl>       <dbl>
 1 1          (Intercept)  5.16        0.980   5.26    0.000000891
 2 1          X1           1.56        0.989   1.57    0.119      
 3 1          X2          -2.67        0.899  -2.96    0.00383    
 4 1          X3           1.32        0.961   1.37    0.173      
 5 1          X4          -0.00812     0.909  -0.00894 0.993      
 6 2          (Intercept)  2.65        0.820   3.23    0.00172    
 7 2          X1           1.93        0.792   2.44    0.0167     
 8 2          X2          -3.58        0.747  -4.79    0.00000617 
 9 2          X3           1.61        0.902   1.79    0.0767     
10 2          X4          -0.639       0.789  -0.810   0.420      
# ℹ 4,990 more rows
…
