3 データの読み込み – 社会調査のためのR入門
…
3.7 ラベルを取り除きたい

ラベルを取り除きたい場合は，zap_label()関数やzap_labels()関数を用いる．

zap_label()：変数ラベルを取り除く

zap_labels()：値ラベルを取り除く

以下では，d_savにzap_label()関数とzap_labels()関数を適用し，変数ラベルと値ラベルを取り除き，d_sav_nolabという新しいオブジェクトとして保存している．

d_sav_nolab <- d_sav |> zap_label() |> zap_labels()
d_sav_nolab

# A tibble: 1,000 × 72
   caseid   sex ybirth mbirth  ZQ03  JC_1 JC_41 ZQ08A ZQ08B ZQ08C ZQ08D ZQ08E
    <dbl> <dbl>  <dbl>  <dbl> <dbl> <dbl> <dbl> <dbl> <dbl> <dbl> <dbl> <dbl>
 1  10001     1   1976     10     1     2    12     4     1     3     4     4
 2  10002     1   1972      1     1     2     9     6     2     2     4     6
 3  10003     1   1975      4     1     2     9     6     6     6     3     6
 4  10004     2   1974     11     1     2     7     6     1     1     5     1
 5  10005     1   1978      1     2    10    88     6     2     2     4     1
 6  10006     1   1984      2     2    10    88     6     1     2     6     3
 7  10007     2   1976      6     1     2     8     6     4     1     5     1
 8  10008     1   1975      4     1     2     9     5     2     2     4     4
 9  10009     2   1985      9     1     3     5     1     1     1     4     1
10  10010     1   1972      2     1     2     8     6     1     2     5     6
# ℹ 990 more rows
# ℹ 60 more variables: ZQ08F <dbl>, ZQ08G <dbl>, ZQ08H <dbl>, ZQ11_A <dbl>,
#   ZQ11_B <dbl>, ZQ11_C <dbl>, ZQ11_D <dbl>, ZQ11_E <dbl>, ZQ11_F <dbl>,
#   ZQ11_G <dbl>, ZQ11_H <dbl>, ZQ11_I <dbl>, ZQ11_J <dbl>, ZQ11_K <dbl>,
#   ZQ11_L <dbl>, ZQ11_M <dbl>, ZQ11_N <dbl>, ZQ11_O <dbl>, ZQ12 <dbl>,
#   ZQ14_1A <dbl>, ZQ14_1B <dbl>, ZQ14_1C <dbl>, ZQ14_1D <dbl>, ZQ23A <dbl>,
#   ZQ23B <dbl>, ZQ23C <dbl>, ZQ23D <dbl>, ZQ24 <dbl>, ZQ25 <dbl>, …
…
