2 パイプ演算子 – 社会調査のためのR入門
…
[1] 3.141593

3 |> round(pi, digits = _)

[1] 3.142

3 %>%  round(pi, digits = .)

[1] 3.142

2.7 スターウォーズデータの例

starwars

# A tibble: 87 × 14
   name     height  mass hair_color skin_color eye_color birth_year sex   gender
   <chr>     <int> <dbl> <chr>      <chr>      <chr>          <dbl> <chr> <chr> 
 1 Luke Sk…    172    77 blond      fair       blue            19   male  mascu…
 2 C-3PO       167    75 <NA>       gold       yellow         112   none  mascu…
 3 R2-D2        96    32 <NA>       white, bl… red             33   none  mascu…
 4 Darth V…    202   136 none       white      yellow          41.9 male  mascu…
 5 Leia Or…    150    49 brown      light      brown           19   fema… femin…
 6 Owen La…    178   120 brown, gr… light      blue            52   male  mascu…
 7 Beru Wh…    165    75 brown      light      blue            47   fema… femin…
 8 R5-D4        97    32 <NA>       white, red red             NA   none  mascu…
 9 Biggs D…    183    84 black      light      brown           24   male  mascu…
10 Obi-Wan…    182    77 auburn, w… fair       blue-gray       57   male  mascu…
# ℹ 77 more rows
# ℹ 5 more variables: homeworld <chr>, species <chr>, films <list>,
#   vehicles <list>, starships <list>
…
starwars |> tabyl(sex)

            sex  n    percent valid_percent
         female 16 0.18390805    0.19277108
 hermaphroditic  1 0.01149425    0.01204819
           male 60 0.68965517    0.72289157
           none  6 0.06896552    0.07228916
           <NA>  4 0.04597701            NA

# 変数の選択
starwars

# A tibble: 87 × 14
   name     height  mass hair_color skin_color eye_color birth_year sex   gender
   <chr>     <int> <dbl> <chr>      <chr>      <chr>          <dbl> <chr> <chr> 
 1 Luke Sk…    172    77 blond      fair       blue            19   male  mascu…
 2 C-3PO       167    75 <NA>       gold       yellow         112   none  mascu…
 3 R2-D2        96    32 <NA>       white, bl… red             33   none  mascu…
 4 Darth V…    202   136 none       white      yellow          41.9 male  mascu…
 5 Leia Or…    150    49 brown      light      brown           19   fema… femin…
 6 Owen La…    178   120 brown, gr… light      blue            52   male  mascu…
 7 Beru Wh…    165    75 brown      light      blue            47   fema… femin…
 8 R5-D4        97    32 <NA>       white, red red             NA   none  mascu…
 9 Biggs D…    183    84 black      light      brown           24   male  mascu…
10 Obi-Wan…    182    77 auburn, w… fair       blue-gray       57   male  mascu…
# ℹ 77 more rows
# ℹ 5 more variables: homeworld <chr>, species <chr>, films <list>,
#   vehicles <list>, starships <list>

dplyr::select(starwars, name, height, mass)

# A tibble: 87 × 3
   name               height  mass
   <chr>               <int> <dbl>
 1 Luke Skywalker        172    77
 2 C-3PO                 167    75
 3 R2-D2                  96    32
 4 Darth Vader           202   136
 5 Leia Organa           150    49
 6 Owen Lars             178   120
 7 Beru Whitesun lars    165    75
 8 R5-D4                  97    32
 9 Biggs Darklighter     183    84
10 Obi-Wan Kenobi        182    77
# ℹ 77 more rows

starwars %>% dplyr::select(name, height, mass)

# A tibble: 87 × 3
   name               height  mass
   <chr>               <int> <dbl>
 1 Luke Skywalker        172    77
 2 C-3PO                 167    75
 3 R2-D2                  96    32
 4 Darth Vader           202   136
 5 Leia Organa           150    49
 6 Owen Lars             178   120
 7 Beru Whitesun lars    165    75
 8 R5-D4                  97    32
 9 Biggs Darklighter     183    84
10 Obi-Wan Kenobi        182    77
# ℹ 77 more rows

starwars |> dplyr::select(name, height, mass)

# A tibble: 87 × 3
   name               height  mass
   <chr>               <int> <dbl>
 1 Luke Skywalker        172    77
 2 C-3PO                 167    75
 3 R2-D2                  96    32
 4 Darth Vader           202   136
 5 Leia Organa           150    49
 6 Owen Lars             178   120
 7 Beru Whitesun lars    165    75
 8 R5-D4                  97    32
 9 Biggs Darklighter     183    84
10 Obi-Wan Kenobi        182    77
# ℹ 77 more rows
…
