社会調査のためのR入門 - 6 そのためメモ
…
select_vars <- c("height", "mass")
starwars |> select(select_vars) 

Warning: Using an external vector in selections was deprecated in tidyselect 1.1.0.
ℹ Please use `all_of()` or `any_of()` instead.
  # Was:
  data %>% select(select_vars)

  # Now:
  data %>% select(all_of(select_vars))

See <https://tidyselect.r-lib.org/reference/faq-external-vector.html>.

# A tibble: 87 × 2
   height  mass
    <int> <dbl>
 1    172    77
 2    167    75
 3     96    32
 4    202   136
 5    150    49
 6    178   120
 7    165    75
 8     97    32
 9    183    84
10    182    77
# ℹ 77 more rows

starwars |> select(any_of(select_vars))

# A tibble: 87 × 2
   height  mass
    <int> <dbl>
 1    172    77
 2    167    75
 3     96    32
 4    202   136
 5    150    49
 6    178   120
 7    165    75
 8     97    32
 9    183    84
10    182    77
# ℹ 77 more rows
…
map_vec(x, sqrt)

 [1] 1.000000 1.414214 1.732051 2.000000 2.236068 2.449490 2.645751 2.828427
 [9] 3.000000 3.162278

d <- d %>% mutate(gpa_std = (gpa_sum - mean(gpa_sum, na.rm = TRUE)) / sd(gpa_sum, na.rm = TRUE))

6.4 部分一致

data.frame形式であれば$で変数名の部分一致が利用できるが，tibble形式ではできない．部分一致によってエラーが生じる可能性もあるので省略せずに入力するほうが良い．

library(tidyverse)
starwars

# A tibble: 87 × 14
   name     height  mass hair_color skin_color eye_color birth_year sex   gender
   <chr>     <int> <dbl> <chr>      <chr>      <chr>          <dbl> <chr> <chr> 
 1 Luke Sk…    172    77 blond      fair       blue            19   male  mascu…
 2 C-3PO       167    75 <NA>       gold       yellow         112   none  mascu…
 3 R2-D2        96    32 <NA>       white, bl… red             33   none  mascu…
 4 Darth V…    202   136 none       white      yellow          41.9 male  mascu…
 5 Leia Or…    150    49 brown      light      brown           19   fema… femin…
 6 Owen La…    178   120 brown, gr… light      blue            52   male  mascu…
 7 Beru Wh…    165    75 brown      light      blue            47   fema… femin…
 8 R5-D4        97    32 <NA>       white, red red             NA   none  mascu…
 9 Biggs D…    183    84 black      light      brown           24   male  mascu…
10 Obi-Wan…    182    77 auburn, w… fair       blue-gray       57   male  mascu…
# ℹ 77 more rows
# ℹ 5 more variables: homeworld <chr>, species <chr>, films <list>,
#   vehicles <list>, starships <list>
…
