4 変数へのアクセス – 社会調査のためのR入門
…
summarise関数

mutate関数

filter関数

select関数

library(dplyr)

5.1 新しい変数の作成

d |> mutate(age_2006 = 2006 - ybirth)

# A tibble: 1,000 × 73
   caseid sex        ybirth mbirth ZQ03        JC_1     JC_41    ZQ08A   ZQ08B  
    <dbl> <dbl+lbl>   <dbl>  <dbl> <dbl+lbl>   <dbl+lb> <dbl+lb> <dbl+l> <dbl+l>
 1  10001 1 [male]     1976     10 1 [してい…  2 [正… 12     … 4 [週… 1 [毎…
 2  10002 1 [male]     1972      1 1 [してい…  2 [正…  9     … 6 [ほ… 2 [週…
 3  10003 1 [male]     1975      4 1 [してい…  2 [正…  9     … 6 [ほ… 6 [ほ…
 4  10004 2 [female]   1974     11 1 [してい…  2 [正…  7     … 6 [ほ… 1 [毎…
 5  10005 1 [male]     1978      1 2 [してい… 10 [無… 88 [非… 6 [ほ… 2 [週…
 6  10006 1 [male]     1984      2 2 [してい… 10 [無… 88 [非… 6 [ほ… 1 [毎…
 7  10007 2 [female]   1976      6 1 [してい…  2 [正…  8     … 6 [ほ… 4 [週…
 8  10008 1 [male]     1975      4 1 [してい…  2 [正…  9     … 5 [月… 2 [週…
 9  10009 2 [female]   1985      9 1 [してい…  3 [パ…  5     … 1 [毎… 1 [毎…
10  10010 1 [male]     1972      2 1 [してい…  2 [正…  8     … 6 [ほ… 1 [毎…
# ℹ 990 more rows
# ℹ 64 more variables: ZQ08C <dbl+lbl>, ZQ08D <dbl+lbl>, ZQ08E <dbl+lbl>,
#   ZQ08F <dbl+lbl>, ZQ08G <dbl+lbl>, ZQ08H <dbl+lbl>, ZQ11_A <dbl+lbl>,
#   ZQ11_B <dbl+lbl>, ZQ11_C <dbl+lbl>, ZQ11_D <dbl+lbl>, ZQ11_E <dbl+lbl>,
#   ZQ11_F <dbl+lbl>, ZQ11_G <dbl+lbl>, ZQ11_H <dbl+lbl>, ZQ11_I <dbl+lbl>,
#   ZQ11_J <dbl+lbl>, ZQ11_K <dbl+lbl>, ZQ11_L <dbl+lbl>, ZQ11_M <dbl+lbl>,
#   ZQ11_N <dbl+lbl>, ZQ11_O <dbl+lbl>, ZQ12 <dbl+lbl>, ZQ14_1A <dbl+lbl>, …

d |> mutate(age_2006 = 2006 - ybirth, .before = 1)

# A tibble: 1,000 × 73
   age_2006 caseid sex        ybirth mbirth ZQ03       JC_1     JC_41    ZQ08A  
      <dbl>  <dbl> <dbl+lbl>   <dbl>  <dbl> <dbl+lbl>  <dbl+lb> <dbl+lb> <dbl+l>
 1       30  10001 1 [male]     1976     10 1 [してい…  2 [正… 12     … 4 [週…
 2       34  10002 1 [male]     1972      1 1 [してい…  2 [正…  9     … 6 [ほ…
 3       31  10003 1 [male]     1975      4 1 [してい…  2 [正…  9     … 6 [ほ…
 4       32  10004 2 [female]   1974     11 1 [してい…  2 [正…  7     … 6 [ほ…
 5       28  10005 1 [male]     1978      1 2 [してい… 10 [無… 88 [非… 6 [ほ…
 6       22  10006 1 [male]     1984      2 2 [してい… 10 [無… 88 [非… 6 [ほ…
 7       30  10007 2 [female]   1976      6 1 [してい…  2 [正…  8     … 6 [ほ…
 8       31  10008 1 [male]     1975      4 1 [してい…  2 [正…  9     … 5 [月…
 9       21  10009 2 [female]   1985      9 1 [してい…  3 [パ…  5     … 1 [毎…
10       34  10010 1 [male]     1972      2 1 [してい…  2 [正…  8     … 6 [ほ…
# ℹ 990 more rows
# ℹ 64 more variables: ZQ08B <dbl+lbl>, ZQ08C <dbl+lbl>, ZQ08D <dbl+lbl>,
#   ZQ08E <dbl+lbl>, ZQ08F <dbl+lbl>, ZQ08G <dbl+lbl>, ZQ08H <dbl+lbl>,
#   ZQ11_A <dbl+lbl>, ZQ11_B <dbl+lbl>, ZQ11_C <dbl+lbl>, ZQ11_D <dbl+lbl>,
#   ZQ11_E <dbl+lbl>, ZQ11_F <dbl+lbl>, ZQ11_G <dbl+lbl>, ZQ11_H <dbl+lbl>,
#   ZQ11_I <dbl+lbl>, ZQ11_J <dbl+lbl>, ZQ11_K <dbl+lbl>, ZQ11_L <dbl+lbl>,
#   ZQ11_M <dbl+lbl>, ZQ11_N <dbl+lbl>, ZQ11_O <dbl+lbl>, ZQ12 <dbl+lbl>, …
…
5.2 変数の選択

d |> select(ybirth)

# A tibble: 1,000 × 1
   ybirth
    <dbl>
 1   1976
 2   1972
 3   1975
 4   1974
 5   1978
 6   1984
 7   1976
 8   1975
 9   1985
10   1972
# ℹ 990 more rows
…
5.4 ケースの選択

d |> filter(ybirth == 1981)

# A tibble: 70 × 73
   caseid sex        ybirth mbirth ZQ03        JC_1     JC_41    ZQ08A   ZQ08B  
    <dbl> <dbl+lbl>   <dbl>  <dbl> <dbl+lbl>   <dbl+lb> <dbl+lb> <dbl+l> <dbl+l>
 1  10040 1 [male]     1981      9 1 [してい…  2 [正… 12     … 4 [週… 1 [毎…
 2  10059 1 [male]     1981      1 1 [してい…  2 [正… 10     … 5 [月… 1 [毎…
 3  10064 1 [male]     1981      2 1 [してい… 12 [学…  1     … 5 [月… 1 [毎…
 4  10100 2 [female]   1981     10 2 [してい… 10 [無… 88 [非… 6 [ほ… 1 [毎…
 5  10102 2 [female]   1981      6 1 [してい…  3 [パ…  8     … 6 [ほ… 3 [週…
 6  10119 2 [female]   1981      6 1 [してい…  3 [パ…  8     … 6 [ほ… 1 [毎…
 7  10124 1 [male]     1981      7 2 [してい… 11 [学… 88 [非… 6 [ほ… 1 [毎…
 8  10154 2 [female]   1981     11 1 [してい…  4 [派…  7     … 6 [ほ… 9 [無…
 9  10159 2 [female]   1981      3 1 [してい…  2 [正…  8     … 6 [ほ… 1 [毎…
10  10166 2 [female]   1981      6 1 [してい…  2 [正… 10     … 6 [ほ… 1 [毎…
# ℹ 60 more rows
# ℹ 64 more variables: ZQ08C <dbl+lbl>, ZQ08D <dbl+lbl>, ZQ08E <dbl+lbl>,
#   ZQ08F <dbl+lbl>, ZQ08G <dbl+lbl>, ZQ08H <dbl+lbl>, ZQ11_A <dbl+lbl>,
#   ZQ11_B <dbl+lbl>, ZQ11_C <dbl+lbl>, ZQ11_D <dbl+lbl>, ZQ11_E <dbl+lbl>,
#   ZQ11_F <dbl+lbl>, ZQ11_G <dbl+lbl>, ZQ11_H <dbl+lbl>, ZQ11_I <dbl+lbl>,
#   ZQ11_J <dbl+lbl>, ZQ11_K <dbl+lbl>, ZQ11_L <dbl+lbl>, ZQ11_M <dbl+lbl>,
#   ZQ11_N <dbl+lbl>, ZQ11_O <dbl+lbl>, ZQ12 <dbl+lbl>, ZQ14_1A <dbl+lbl>, …
…
